…
The entire optimisation process is run both without penalty
(`monotonous = 0` and `individual_level = 0`) and with a penalty
(`monotonous = 1` and `individual_level = 1`).

The results of the optimisation round in stored in the
[`?diseasy_immunity_optimiser_results`](https://ssi-dk.github.io/diseasy/reference/diseasy_immunity_optimiser_results.md)
data-set.

``` r
results <- diseasy_immunity_optimiser_results

results
#> # A tibble: 37,465 × 10
#>    target  variation      method strategy penalty     M     value execution_time
#>    <chr>   <chr>          <chr>  <chr>    <lgl>   <int>     <dbl>          <dbl>
#>  1 exp_sum Base           all_f… combina… FALSE       2 1.46e-  1        2.92   
#>  2 exp_sum Base           all_f… naive    FALSE       2 1.46e-  1        1.73   
#>  3 exp_sum Base           all_f… recursi… FALSE       2 1.46e-  1        1.69   
#>  4 exp_sum Base           free_… naive    FALSE       2 8.99e+307        0.00725
#>  5 exp_sum Base           free_… recursi… FALSE       2 8.99e+307        0.00647
#>  6 exp_sum Base           free_… naive    FALSE       2 1.46e-  1        1.56   
#>  7 exp_sum Base           free_… recursi… FALSE       2 1.46e-  1        1.56   
#>  8 exp_sum Non-zero asym… all_f… combina… FALSE       2 1.17e-  1        3.00   
#>  9 exp_sum Non-zero asym… all_f… naive    FALSE       2 1.17e-  1        1.58   
#> 10 exp_sum Non-zero asym… all_f… recursi… FALSE       2 1.17e-  1        1.51   
#> # ℹ 37,455 more rows
#> # ℹ 2 more variables: optim_method <chr>, target_label <chr>
```
…
