DiseasyModelRegression • diseasy
…
Since the models are “duplicated” as described above, we here show
only the results for the GLM family of models

observables$set_last_queryable_date(last_queryable_date)
model_1 <- DiseasyModelG0$new(observables = observables)
model_2 <- DiseasyModelG1$new(observables = observables)

The models are configured out-of-the-box and we can now retrieve
model predictions for any observable:

model_1$get_results(
  observable = "n_positive",
  prediction_length = 30
)
#> # A tibble: 3,000 × 4
#>    date       n_positive realisation_id weight
#>    <date>          <dbl> <chr>           <dbl>
#>  1 2020-03-04     23274. 1                   1
#>  2 2020-03-05     20767. 1                   1
#>  3 2020-03-06     23386. 1                   1
#>  4 2020-03-07     23290. 1                   1
#>  5 2020-03-08     21900. 1                   1
#>  6 2020-03-09     19036. 1                   1
#>  7 2020-03-10     19889. 1                   1
#>  8 2020-03-11     20814. 1                   1
#>  9 2020-03-12     21250. 1                   1
#> 10 2020-03-13     25260. 1                   1
#> # ℹ 2,990 more rows
…
