DiseasyRegions • diseasy
…
demography: a data.frame with one region
column, optional stratification columns, and one population column.

adjacency: a data.frame describing
connectedness between pairs of regions (see the Regional adjacency section for further
details).

The demography data must include the columns region and
population. Any additional columns are treated as
stratification variables.

demography_nordic
#> # A tibble: 505 × 3
#>   region   age population
#>   <chr>  <dbl>      <dbl>
#> 1 DK         0      60965
#> 2 DK         1      61357
#> 3 DK         2      61663
#> 4 DK         3      62128
#> 5 DK         4      61148
#> # ℹ 500 more rows

The adjacency data must include exactly the columns
from, to, and adjacency. The
from and to columns should contain the same
set of region identifiers.

adjacency_meta_nordic
#> # A tibble: 25 × 3
#>   from  to    adjacency
#>   <chr> <chr>     <dbl>
#> 1 NO    NO       6413. 
#> 2 NO    FI         13.7
#> 3 FI    NO         13.7
#> 4 SE    NO         52.1
#> 5 NO    SE         52.1
#> # ℹ 20 more rows
…
region$set_regions(regions = c("DK", "SE", "NO", "FI"))
region$set_demography(demography = demography_nordic)
region$set_adjacency(adjacency = adjacency_meta_nordic)

region
#> # DiseasyRegions #############################################
#> Regions: DK, FI, NO, SE
#> Total population: 27,124,322
#> Theta matrix: Max eigenvalue 1.01

The $demography field returns demography
filtered to the currently selected regions.

region %.% demography
#> # A tibble: 404 × 3
#>   region   age population
#>   <chr>  <dbl>      <dbl>
#> 1 DK         0      60965
#> 2 DK         1      61357
#> 3 DK         2      61663
#> 4 DK         3      62128
#> 5 DK         4      61148
#> # ℹ 399 more rows
…
Changing the selected regions

The selected regional scope can be changed with
$set_regions(). The new regions must be available in the
stored adjacency and demography data.

region$set_regions(regions = c("DK", "SE"))

region %.% regions
#> [1] "DK" "SE"

The active fields now reflect the updated scope.

region %.% demography
#> # A tibble: 202 × 3
#>   region   age population
#>   <chr>  <dbl>      <dbl>
#> 1 DK         0      60965
#> 2 DK         1      61357
#> 3 DK         2      61663
#> 4 DK         3      62128
#> 5 DK         4      61148
#> # ℹ 197 more rows
…
