DiseasyObservables • diseasy
…
#> ℹ If your table actually contains "." in the name use `check_from = FALSE` to
#>   silence this message.
#> It looks like you tried to incorrectly use a table in a schema as source.
#> ℹ If you want to specify a schema use `in_schema()` or `in_catalog()`.
#> ℹ If your table actually contains "." in the name use `check_from = FALSE` to
#>   silence this message.
#> It looks like you tried to incorrectly use a table in a schema as source.
#> ℹ If you want to specify a schema use `in_schema()` or `in_catalog()`.
#> ℹ If your table actually contains "." in the name use `check_from = FALSE` to
#>   silence this message.
#> It looks like you tried to incorrectly use a table in a schema as source.
#> ℹ If you want to specify a schema use `in_schema()` or `in_catalog()`.
#> ℹ If your table actually contains "." in the name use `check_from = FALSE` to
#>   silence this message.
#> # A tibble: 62 × 2
#>    date n_population
#>   <dbl>        <dbl>
#> 1 18322    630535711
#> 2 18323    630535711
#> 3 18324    630535711
#> 4 18325    630535711
#> 5 18326    630535711
#> # ℹ 57 more rows
…
#> ℹ If your table actually contains "." in the name use `check_from = FALSE` to
#>   silence this message.
#> It looks like you tried to incorrectly use a table in a schema as source.
#> ℹ If you want to specify a schema use `in_schema()` or `in_catalog()`.
#> ℹ If your table actually contains "." in the name use `check_from = FALSE` to
#>   silence this message.
#> It looks like you tried to incorrectly use a table in a schema as source.
#> ℹ If you want to specify a schema use `in_schema()` or `in_catalog()`.
#> ℹ If your table actually contains "." in the name use `check_from = FALSE` to
#>   silence this message.
#> It looks like you tried to incorrectly use a table in a schema as source.
#> ℹ If you want to specify a schema use `in_schema()` or `in_catalog()`.
#> ℹ If your table actually contains "." in the name use `check_from = FALSE` to
#>   silence this message.
#> # A tibble: 620 × 3
#>    date age_group n_hospital
#>   <dbl> <chr>          <dbl>
#> 1 18322 00-09              0
#> 2 18323 00-09              1
#> 3 18324 00-09              0
#> 4 18325 00-09              2
#> 5 18326 00-09              2
#> # ℹ 615 more rows
…
#> ℹ If your table actually contains "." in the name use `check_from = FALSE` to
#>   silence this message.
#> It looks like you tried to incorrectly use a table in a schema as source.
#> ℹ If you want to specify a schema use `in_schema()` or `in_catalog()`.
#> ℹ If your table actually contains "." in the name use `check_from = FALSE` to
#>   silence this message.
#> It looks like you tried to incorrectly use a table in a schema as source.
#> ℹ If you want to specify a schema use `in_schema()` or `in_catalog()`.
#> ℹ If your table actually contains "." in the name use `check_from = FALSE` to
#>   silence this message.
#> It looks like you tried to incorrectly use a table in a schema as source.
#> ℹ If you want to specify a schema use `in_schema()` or `in_catalog()`.
#> ℹ If your table actually contains "." in the name use `check_from = FALSE` to
#>   silence this message.
#> # A tibble: 124 × 3
#>    date young_age_groups n_hospital
#>   <dbl>            <int>      <dbl>
#> 1 18322                0          2
#> 2 18323                0          5
#> 3 18324                0          5
#> 4 18325                0         10
#> 5 18326                0          6
#> # ℹ 119 more rows
…
