DiseasyImmunity optimisation • diseasy
…
The entire optimisation process is run both without penalty
(monotonous = 0 and individual_level = 0) and
with a penalty (monotonous = 1 and
individual_level = 1), see
vignette("diseasy-immunity") for monotonous
and individual_level definitions.

The results of the optimisation round are stored in the
?diseasy_immunity_optimiser_results data-set.

results <- diseasy_immunity_optimiser_results

results
#> # A tibble: 20,816 × 10
#>    target  variation          method strategy penalty     M value execution_time
#>    <chr>   <chr>              <chr>  <chr>    <lgl>   <int> <dbl>          <dbl>
#>  1 exp_sum Base               all_f… combina… FALSE       2 0.420          0.847
#>  2 exp_sum Base               all_f… naive    FALSE       2 0.420          0.715
#>  3 exp_sum Base               all_f… recursi… FALSE       2 0.420          0.651
#>  4 exp_sum Base               free_… naive    FALSE       2 0.420          0.671
#>  5 exp_sum Base               free_… recursi… FALSE       2 0.420          0.702
#>  6 exp_sum Non-zero asymptote all_f… combina… FALSE       2 0.336          0.875
#>  7 exp_sum Non-zero asymptote all_f… naive    FALSE       2 0.336          0.665
#>  8 exp_sum Non-zero asymptote all_f… recursi… FALSE       2 0.336          0.695
#>  9 exp_sum Non-zero asymptote free_… naive    FALSE       2 0.336          0.671
#> 10 exp_sum Non-zero asymptote free_… recursi… FALSE       2 0.336          0.662
#> # ℹ 20,806 more rows
#> # ℹ 2 more variables: optim_method <chr>, target_label <chr>
…
