…
To create a new activity scenario with an active instance of the module,
we can use the `$reset_scenario()` method:

``` r
act$reset_scenario()
act$get_scenario_activities()
#> named list()
```

The scenario can also be loaded directly from a `data.frame` such as the
`dk_reference_scenario`

``` r
print(dk_reference_scenario)
#> # A tibble: 301 × 4
#>   date       opening                          closing  social_distance_work
#>   <date>     <chr>                            <chr>                   <dbl>
#> 1 2020-01-01 baseline                         NA                       1   
#> 2 2020-03-11 NA                               baseline                 0.45
#> 3 2020-03-11 lockdown_2020                    NA                       0.45
#> 4 2020-04-15 secondary_education_phase_1_2020 NA                       0.45
#> 5 2020-04-15 private_companies_phase_1_2020   NA                       0.45
#> # ℹ 296 more rows
```
…
