…
``` r
model_data <- c("n_infected", "n_positive_simple", "n_positive") |>
  purrr::map(\(observable) {
    obs$get_observation(
      observable = observable,
      stratification = rlang::quos(age_group)
    )
  }) |>
  purrr::reduce(~ dplyr::full_join(.x, .y, by = c("date", "age_group"))) |>
  dplyr::mutate("variant" = "WT", .after = "age_group")

model_data
#> # A tibble: 450 × 6
#>    date       age_group variant n_infected n_positive_simple n_positive
#>    <date>     <chr>     <chr>        <dbl>             <dbl>      <dbl>
#>  1 2020-01-03 60+       WT            17.2                 7          7
#>  2 2020-01-04 60+       WT            36.8                26         23
#>  3 2020-01-05 60+       WT            49.1                26         19
#>  4 2020-01-06 60+       WT            57.4                34         39
#>  5 2020-01-07 60+       WT            64.4                47         47
#>  6 2020-01-08 60+       WT            71.6                44         47
#>  7 2020-01-09 60+       WT            79.2                55         59
#>  8 2020-01-10 60+       WT            87.4                61         64
#>  9 2020-01-11 60+       WT            96.0                59         47
#> 10 2020-01-12 60+       WT           105.                 83         67
#> # ℹ 440 more rows
```
…
  return(out)
}

prediction <- get_prediction(model = m, psi = psi)

prediction
#> # A tibble: 153 × 7
#>     time variant age_group   value date       incidence_model
#>    <dbl> <chr>   <chr>       <dbl> <date>               <dbl>
#>  1     0 All     00-29     0.00484 2020-02-17         0.00302
#>  2     0 All     30-59     0.00410 2020-02-17         0.00236
#>  3     0 All     60+       0.00139 2020-02-17         0.00120
#>  4     1 All     00-29     0.00512 2020-02-18         0.00319
#>  5     1 All     30-59     0.00433 2020-02-18         0.00249
#>  6     1 All     60+       0.00147 2020-02-18         0.00127
#>  7     2 All     00-29     0.00546 2020-02-19         0.00341
#>  8     2 All     30-59     0.00462 2020-02-19         0.00266
#>  9     2 All     60+       0.00157 2020-02-19         0.00135
#> 10     3 All     00-29     0.00586 2020-02-20         0.00365
#> # ℹ 143 more rows
#> # ℹ 1 more variable: model_configuration <chr>
```
…
